	{ "mmCLK1_CLK_PLL_REQ", REG_MMIO, 0x000f, 1, &mmCLK1_CLK_PLL_REQ[0], sizeof(mmCLK1_CLK_PLL_REQ)/sizeof(mmCLK1_CLK_PLL_REQ[0]), 0, 0 },
	{ "mmCLK1_CLK0_BYPASS_CNTL", REG_MMIO, 0x0049, 1, &mmCLK1_CLK0_BYPASS_CNTL[0], sizeof(mmCLK1_CLK0_BYPASS_CNTL)/sizeof(mmCLK1_CLK0_BYPASS_CNTL[0]), 0, 0 },
	{ "mmCLK1_CLK1_BYPASS_CNTL", REG_MMIO, 0x0053, 1, &mmCLK1_CLK1_BYPASS_CNTL[0], sizeof(mmCLK1_CLK1_BYPASS_CNTL)/sizeof(mmCLK1_CLK1_BYPASS_CNTL[0]), 0, 0 },
	{ "mmCLK1_CLK2_BYPASS_CNTL", REG_MMIO, 0x005d, 1, &mmCLK1_CLK2_BYPASS_CNTL[0], sizeof(mmCLK1_CLK2_BYPASS_CNTL)/sizeof(mmCLK1_CLK2_BYPASS_CNTL[0]), 0, 0 },
	{ "mmCLK1_CLK2_STATUS", REG_MMIO, 0x005e, 1, NULL, 0, 0, 0 },
	{ "mmCLK1_CLK3_DFS_CNTL", REG_MMIO, 0x005f, 1, NULL, 0, 0, 0 },
	{ "mmCLK1_CLK3_DS_CNTL", REG_MMIO, 0x0060, 1, &mmCLK1_CLK3_DS_CNTL[0], sizeof(mmCLK1_CLK3_DS_CNTL)/sizeof(mmCLK1_CLK3_DS_CNTL[0]), 0, 0 },
	{ "mmCLK1_CLK3_ALLOW_DS", REG_MMIO, 0x0061, 1, &mmCLK1_CLK3_ALLOW_DS[0], sizeof(mmCLK1_CLK3_ALLOW_DS)/sizeof(mmCLK1_CLK3_ALLOW_DS[0]), 0, 0 },
	{ "mmCLK1_CLK3_BYPASS_CNTL", REG_MMIO, 0x0067, 1, &mmCLK1_CLK3_BYPASS_CNTL[0], sizeof(mmCLK1_CLK3_BYPASS_CNTL)/sizeof(mmCLK1_CLK3_BYPASS_CNTL[0]), 0, 0 },
	{ "mmCLK1_CLK0_CURRENT_CNT", REG_MMIO, 0x008a, 1, &mmCLK1_CLK0_CURRENT_CNT[0], sizeof(mmCLK1_CLK0_CURRENT_CNT)/sizeof(mmCLK1_CLK0_CURRENT_CNT[0]), 0, 0 },
	{ "mmCLK1_CLK1_CURRENT_CNT", REG_MMIO, 0x008b, 1, &mmCLK1_CLK1_CURRENT_CNT[0], sizeof(mmCLK1_CLK1_CURRENT_CNT)/sizeof(mmCLK1_CLK1_CURRENT_CNT[0]), 0, 0 },
	{ "mmCLK1_CLK2_CURRENT_CNT", REG_MMIO, 0x008c, 1, &mmCLK1_CLK2_CURRENT_CNT[0], sizeof(mmCLK1_CLK2_CURRENT_CNT)/sizeof(mmCLK1_CLK2_CURRENT_CNT[0]), 0, 0 },
	{ "mmCLK1_CLK3_CURRENT_CNT", REG_MMIO, 0x008d, 1, &mmCLK1_CLK3_CURRENT_CNT[0], sizeof(mmCLK1_CLK3_CURRENT_CNT)/sizeof(mmCLK1_CLK3_CURRENT_CNT[0]), 0, 0 },
