	{ "mmUMCCH0_0_EccErrCntSel", REG_MMIO, 0x0360, 0, &mmUMCCH0_0_EccErrCntSel[0], sizeof(mmUMCCH0_0_EccErrCntSel)/sizeof(mmUMCCH0_0_EccErrCntSel[0]), 0, 0 },
	{ "mmUMCCH0_0_EccErrCnt", REG_MMIO, 0x0361, 0, &mmUMCCH0_0_EccErrCnt[0], sizeof(mmUMCCH0_0_EccErrCnt)/sizeof(mmUMCCH0_0_EccErrCnt[0]), 0, 0 },
	{ "mmMCA_UMC_UMC0_MCUMC_STATUST0", REG_MMIO, 0x03c2, 0, &mmMCA_UMC_UMC0_MCUMC_STATUST0[0], sizeof(mmMCA_UMC_UMC0_MCUMC_STATUST0)/sizeof(mmMCA_UMC_UMC0_MCUMC_STATUST0[0]), 0, 0 },
	{ "mmMCA_UMC_UMC0_MCUMC_ADDRT0", REG_MMIO, 0x03c4, 0, &mmMCA_UMC_UMC0_MCUMC_ADDRT0[0], sizeof(mmMCA_UMC_UMC0_MCUMC_ADDRT0)/sizeof(mmMCA_UMC_UMC0_MCUMC_ADDRT0[0]), 0, 0 },
