	{ "ATHUB",
		{
			{ 0x00000C00, 0, 0, 0, 0,  },
			{ 0x02408C00, 0, 0, 0, 0,  },
			{ 0, 0, 0, 0, 0,  },
			{ 0, 0, 0, 0, 0,  },
			{ 0, 0, 0, 0, 0,  },
		}
	},
	{ "CLK",
		{
			{ 0x00016C00, 0x00016E00, 0x00017000, 0x00017200, 0x0001B000,  },
			{ 0x02401800, 0x02401C00, 0x02402000, 0x02402400, 0x0242D800,  },
			{ 0, 0, 0, 0, 0,  },
			{ 0, 0, 0, 0, 0,  },
			{ 0, 0, 0, 0, 0,  },
		}
	},
	{ "DF",
		{
			{ 0x00007000, 0, 0, 0, 0,  },
			{ 0x0240B800, 0, 0, 0, 0,  },
			{ 0, 0, 0, 0, 0,  },
			{ 0, 0, 0, 0, 0,  },
			{ 0, 0, 0, 0, 0,  },
		}
	},
	{ "DIO",
		{
			{ 0x02404000, 0, 0, 0, 0,  },
			{ 0, 0, 0, 0, 0,  },
			{ 0, 0, 0, 0, 0,  },
			{ 0, 0, 0, 0, 0,  },
			{ 0, 0, 0, 0, 0,  },
		}
	},
	{ "DMU",
		{
			{ 0x00000012, 0, 0, 0, 0,  },
			{ 0x000000C0, 0, 0, 0, 0,  },
			{ 0x000034C0, 0, 0, 0, 0,  },
			{ 0x00009000, 0, 0, 0, 0,  },
			{ 0x02403C00, 0, 0, 0, 0,  },
		}
	},
	{ "DPCS",
		{
			{ 0x00000012, 0, 0, 0, 0,  },
			{ 0x000000C0, 0, 0, 0, 0,  },
			{ 0x000034C0, 0, 0, 0, 0,  },
			{ 0x00009000, 0, 0, 0, 0,  },
			{ 0x02403C00, 0, 0, 0, 0,  },
		}
	},
	{ "FUSE",
		{
			{ 0x00017400, 0, 0, 0, 0,  },
			{ 0x02401400, 0, 0, 0, 0,  },
			{ 0, 0, 0, 0, 0,  },
			{ 0, 0, 0, 0, 0,  },
			{ 0, 0, 0, 0, 0,  },
		}
	},
	{ "GC",
		{
			{ 0x00001260, 0, 0, 0, 0,  },
			{ 0x0000A000, 0, 0, 0, 0,  },
			{ 0x02402C00, 0, 0, 0, 0,  },
			{ 0, 0, 0, 0, 0,  },
			{ 0, 0, 0, 0, 0,  },
		}
	},
	{ "HDA",
		{
			{ 0x004C0000, 0, 0, 0, 0,  },
			{ 0x02404800, 0, 0, 0, 0,  },
			{ 0, 0, 0, 0, 0,  },
			{ 0, 0, 0, 0, 0,  },
			{ 0, 0, 0, 0, 0,  },
		}
	},
	{ "HDP",
		{
			{ 0x00000F20, 0, 0, 0, 0,  },
			{ 0x0240A400, 0, 0, 0, 0,  },
			{ 0, 0, 0, 0, 0,  },
			{ 0, 0, 0, 0, 0,  },
			{ 0, 0, 0, 0, 0,  },
		}
	},
	{ "MMHUB",
		{
			{ 0x0001A000, 0, 0, 0, 0,  },
			{ 0x02408800, 0, 0, 0, 0,  },
			{ 0, 0, 0, 0, 0,  },
			{ 0, 0, 0, 0, 0,  },
			{ 0, 0, 0, 0, 0,  },
		}
	},
	{ "MP0",
		{
			{ 0x00016000, 0, 0, 0, 0,  },
			{ 0x00DC0000, 0, 0, 0, 0,  },
			{ 0x00E00000, 0, 0, 0, 0,  },
			{ 0x00E40000, 0, 0, 0, 0,  },
			{ 0x0243FC00, 0, 0, 0, 0,  },
		}
	},
	{ "MP1",
		{
			{ 0x00016000, 0, 0, 0, 0,  },
			{ 0x00DC0000, 0, 0, 0, 0,  },
			{ 0x00E00000, 0, 0, 0, 0,  },
			{ 0x00E40000, 0, 0, 0, 0,  },
			{ 0x0243FC00, 0, 0, 0, 0,  },
		}
	},
	{ "NBIF0",
		{
			{ 0x00000000, 0, 0, 0, 0,  },
			{ 0x00000014, 0, 0, 0, 0,  },
			{ 0x00000D20, 0, 0, 0, 0,  },
			{ 0x00010400, 0, 0, 0, 0,  },
			{ 0x0241B000, 0, 0, 0, 0,  },
		}
	},
	{ "OSSSYS",
		{
			{ 0x000010A0, 0, 0, 0, 0,  },
			{ 0x0240A000, 0, 0, 0, 0,  },
			{ 0, 0, 0, 0, 0,  },
			{ 0, 0, 0, 0, 0,  },
			{ 0, 0, 0, 0, 0,  },
		}
	},
	{ "PCIE0",
		{
			{ 0x00000000, 0, 0, 0, 0,  },
			{ 0x00000014, 0, 0, 0, 0,  },
			{ 0x00000D20, 0, 0, 0, 0,  },
			{ 0x00010400, 0, 0, 0, 0,  },
			{ 0x0241B000, 0, 0, 0, 0,  },
		}
	},
	{ "SDMA",
		{
			{ 0x00001260, 0x00001260, 0, 0, 0,  },
			{ 0x0000A000, 0x0000A000, 0, 0, 0,  },
			{ 0x02402C00, 0x02402C00, 0, 0, 0,  },
			{ 0, 0, 0, 0, 0,  },
			{ 0, 0, 0, 0, 0,  },
		}
	},
	{ "SMUIO",
		{
			{ 0x00016800, 0, 0, 0, 0,  },
			{ 0x00016A00, 0, 0, 0, 0,  },
			{ 0x00440000, 0, 0, 0, 0,  },
			{ 0x02401000, 0, 0, 0, 0,  },
			{ 0, 0, 0, 0, 0,  },
		}
	},
	{ "THM",
		{
			{ 0x00016600, 0, 0, 0, 0,  },
			{ 0x02400C00, 0, 0, 0, 0,  },
			{ 0, 0, 0, 0, 0,  },
			{ 0, 0, 0, 0, 0,  },
			{ 0, 0, 0, 0, 0,  },
		}
	},
	{ "UMC",
		{
			{ 0x00014000, 0x00054000, 0x00094000, 0x000D4000, 0,  },
			{ 0x02425800, 0x02425C00, 0x02426000, 0x02426400, 0,  },
			{ 0, 0, 0, 0, 0,  },
			{ 0, 0, 0, 0, 0,  },
			{ 0, 0, 0, 0, 0,  },
		}
	},
	{ "USB0",
		{
			{ 0x0242A800, 0, 0, 0, 0,  },
			{ 0x05B00000, 0, 0, 0, 0,  },
			{ 0, 0, 0, 0, 0,  },
			{ 0, 0, 0, 0, 0,  },
			{ 0, 0, 0, 0, 0,  },
		}
	},
	{ "UVD0",
		{
			{ 0x00007800, 0, 0, 0, 0,  },
			{ 0x00007E00, 0, 0, 0, 0,  },
			{ 0x02403000, 0, 0, 0, 0,  },
			{ 0, 0, 0, 0, 0,  },
			{ 0, 0, 0, 0, 0,  },
		}
	},
